"code_region","nom_reg","type_de_vaccin","nb_ucd","nb_doses","date"
"01","GDP","Pfizer",1354,6770,2021-01-22
"02","MAR","Pfizer",781,3905,2021-01-22
"03","GUY","Pfizer",272,1360,2021-01-22
"04","REU","Pfizer",1462,7310,2021-01-22
"11","IDF","Pfizer",6014,30070,2021-01-22
"24","CVL","Pfizer",5511,27555,2021-01-22
"27","BFC","Moderna",563,5630,2021-01-22
"27","BFC","Pfizer",6361,31805,2021-01-22
"28","NOR","Pfizer",3792,18960,2021-01-22
"32","HDF","Pfizer",4530,22650,2021-01-22
"44","GES","Pfizer",5207,26035,2021-01-22
"44","GES","Moderna",942,9420,2021-01-22
"52","PDL","Pfizer",3803,19015,2021-01-22
"53","BRE","Pfizer",4263,21315,2021-01-22
"75","NAQ","Pfizer",12196,60980,2021-01-22
"76","OCC","Pfizer",11395,56975,2021-01-22
"84","ARA","Pfizer",10795,53975,2021-01-22
"84","ARA","Moderna",0,0,2021-01-22
"93","PAC","Pfizer",2225,11125,2021-01-22
"93","PAC","Moderna",58,580,2021-01-22
"94","COR","Pfizer",762,3810,2021-01-22
"01","GDP","Pfizer",1354,8124,2021-01-24
"02","MAR","Pfizer",781,4686,2021-01-24
"03","GUY","Pfizer",272,1632,2021-01-24
"11","IDF","Pfizer",6014,36084,2021-01-24
"24","CVL","Pfizer",5511,33066,2021-01-24
"27","BFC","Moderna",407,4070,2021-01-24
"27","BFC","Pfizer",6116,36696,2021-01-24
"28","NOR","Pfizer",3667,22002,2021-01-24
"32","HDF","Pfizer",3817,22902,2021-01-24
"44","GES","Pfizer",4751,28506,2021-01-24
"44","GES","Moderna",900,9000,2021-01-24
"52","PDL","Pfizer",3408,20448,2021-01-24
"53","BRE","Pfizer",4120,24720,2021-01-24
"75","NAQ","Pfizer",11684,70104,2021-01-24
"76","OCC","Pfizer",10484,62904,2021-01-24
"84","ARA","Pfizer",10330,61980,2021-01-24
"84","ARA","Moderna",0,0,2021-01-24
"93","PAC","Pfizer",1983,11898,2021-01-24
"93","PAC","Moderna",58,580,2021-01-24
"94","COR","Pfizer",752,4512,2021-01-24
"04","REU","Pfizer",1462,8772,2021-01-24
"01","GDP","Pfizer",1498,8988,2021-01-31
"02","MAR","Pfizer",613,3678,2021-01-31
"03","GUY","Pfizer",389,2334,2021-01-31
"11","IDF","Pfizer",4615,27690,2021-01-31
"24","CVL","Pfizer",4821,28926,2021-01-31
"27","BFC","Moderna",1421,14210,2021-01-31
"27","BFC","Pfizer",5152,30912,2021-01-31
"28","NOR","Pfizer",3438,20628,2021-01-31
"32","HDF","Pfizer",5729,34374,2021-01-31
"32","HDF","Moderna",480,4800,2021-01-31
"44","GES","Pfizer",6484,38904,2021-01-31
"44","GES","Moderna",1467,14670,2021-01-31
"52","PDL","Pfizer",4404,26424,2021-01-31
"53","BRE","Pfizer",5229,31374,2021-01-31
"75","NAQ","Pfizer",10860,65160,2021-01-31
"76","OCC","Pfizer",9697,58182,2021-01-31
"84","ARA","Pfizer",9182,55092,2021-01-31
"84","ARA","Moderna",240,2400,2021-01-31
"93","PAC","Pfizer",2314,13884,2021-01-31
"93","PAC","Moderna",520,5200,2021-01-31
"94","COR","Pfizer",854,5124,2021-01-31
"01","GDP","AstraZeneca",140,1400,2021-02-12
"01","GDP","Pfizer",1753,10518,2021-02-12
"02","MAR","Pfizer",1350,8100,2021-02-12
"02","MAR","AstraZeneca",140,1400,2021-02-12
"03","GUY","Pfizer",771,4626,2021-02-12
"11","IDF","Pfizer",5566,33396,2021-02-12
"11","IDF","AstraZeneca",2073,20730,2021-02-12
"11","IDF","Moderna",260,2600,2021-02-12
"24","CVL","Pfizer",3854,23124,2021-02-12
"24","CVL","AstraZeneca",1064,10640,2021-02-12
"24","CVL","Moderna",459,4590,2021-02-12
"27","BFC","Pfizer",4984,29904,2021-02-12
"27","BFC","Moderna",1218,12180,2021-02-12
"27","BFC","AstraZeneca",1838,18380,2021-02-12
"28","NOR","Moderna",406,4060,2021-02-12
"28","NOR","Pfizer",1988,11928,2021-02-12
"28","NOR","AstraZeneca",1291,12910,2021-02-12
"32","HDF","Pfizer",10204,61224,2021-02-12
"32","HDF","AstraZeneca",2827,28270,2021-02-12
"32","HDF","Moderna",807,8070,2021-02-12
"44","GES","Pfizer",6583,39498,2021-02-12
"44","GES","AstraZeneca",1976,19760,2021-02-12
"44","GES","Moderna",2674,26740,2021-02-12
"52","PDL","AstraZeneca",1519,15190,2021-02-12
"52","PDL","Pfizer",3686,22116,2021-02-12
"52","PDL","Moderna",765,7650,2021-02-12
"53","BRE","Pfizer",4669,28014,2021-02-12
"53","BRE","AstraZeneca",1515,15150,2021-02-12
"53","BRE","Moderna",672,6720,2021-02-12
"75","NAQ","Pfizer",6369,38214,2021-02-12
"75","NAQ","AstraZeneca",3290,32900,2021-02-12
"75","NAQ","Moderna",1460,14600,2021-02-12
"76","OCC","AstraZeneca",4632,46320,2021-02-12
"76","OCC","Pfizer",6704,40224,2021-02-12
"76","OCC","Moderna",993,9930,2021-02-12
"84","ARA","Moderna",1658,16580,2021-02-12
"84","ARA","AstraZeneca",4944,49440,2021-02-12
"84","ARA","Pfizer",7958,47748,2021-02-12
"93","PAC","AstraZeneca",4045,40450,2021-02-12
"93","PAC","Pfizer",2357,14142,2021-02-12
"93","PAC","Moderna",1350,13500,2021-02-12
"94","COR","Pfizer",640,3840,2021-02-12
"94","COR","AstraZeneca",212,2120,2021-02-12
"94","COR","Moderna",78,780,2021-02-12
"01","GDP","AstraZeneca",140,1400,2021-02-17
"01","GDP","Pfizer",1753,10518,2021-02-17
"02","MAR","Pfizer",1350,8100,2021-02-17
"02","MAR","AstraZeneca",140,1400,2021-02-17
"03","GUY","Pfizer",771,4626,2021-02-17
"11","IDF","Pfizer",5566,33396,2021-02-17
"11","IDF","AstraZeneca",2073,20730,2021-02-17
"11","IDF","Moderna",260,2600,2021-02-17
"24","CVL","Pfizer",3854,23124,2021-02-17
"24","CVL","AstraZeneca",1064,10640,2021-02-17
"24","CVL","Moderna",459,4590,2021-02-17
"27","BFC","Pfizer",4984,29904,2021-02-17
"27","BFC","Moderna",1218,12180,2021-02-17
"27","BFC","AstraZeneca",1838,18380,2021-02-17
"28","NOR","Moderna",406,4060,2021-02-17
"28","NOR","Pfizer",1988,11928,2021-02-17
"28","NOR","AstraZeneca",1291,12910,2021-02-17
"32","HDF","Pfizer",10204,61224,2021-02-17
"32","HDF","AstraZeneca",2827,28270,2021-02-17
"32","HDF","Moderna",807,8070,2021-02-17
"44","GES","Pfizer",6583,39498,2021-02-17
"44","GES","AstraZeneca",1976,19760,2021-02-17
"44","GES","Moderna",2674,26740,2021-02-17
"52","PDL","AstraZeneca",1519,15190,2021-02-17
"52","PDL","Pfizer",3686,22116,2021-02-17
"52","PDL","Moderna",765,7650,2021-02-17
"53","BRE","Pfizer",4669,28014,2021-02-17
"53","BRE","AstraZeneca",1515,15150,2021-02-17
"53","BRE","Moderna",672,6720,2021-02-17
"75","NAQ","Pfizer",6369,38214,2021-02-17
"75","NAQ","AstraZeneca",3290,32900,2021-02-17
"75","NAQ","Moderna",1460,14600,2021-02-17
"76","OCC","AstraZeneca",4632,46320,2021-02-17
"76","OCC","Pfizer",6704,40224,2021-02-17
"76","OCC","Moderna",993,9930,2021-02-17
"84","ARA","Moderna",1658,16580,2021-02-17
"84","ARA","AstraZeneca",4944,49440,2021-02-17
"84","ARA","Pfizer",7958,47748,2021-02-17
"93","PAC","AstraZeneca",4045,40450,2021-02-17
"93","PAC","Pfizer",2357,14142,2021-02-17
"93","PAC","Moderna",1350,13500,2021-02-17
"94","COR","Pfizer",640,3840,2021-02-17
"94","COR","AstraZeneca",212,2120,2021-02-17
"94","COR","Moderna",78,780,2021-02-17
"01","GDP","AstraZeneca",310,3100,2021-02-26
"01","GDP","Pfizer",1727,10362,2021-02-26
"02","MAR","Pfizer",1336,8016,2021-02-26
"02","MAR","AstraZeneca",300,3000,2021-02-26
"03","GUY","Pfizer",818,4908,2021-02-26
"11","IDF","Pfizer",14363,86178,2021-02-26
"11","IDF","AstraZeneca",2367,23670,2021-02-26
"11","IDF","Moderna",8,80,2021-02-26
"24","CVL","Pfizer",2778,16668,2021-02-26
"24","CVL","Moderna",205,2050,2021-02-26
"24","CVL","AstraZeneca",882,8820,2021-02-26
"27","BFC","Moderna",436,4360,2021-02-26
"27","BFC","AstraZeneca",1114,11140,2021-02-26
"27","BFC","Pfizer",6306,37836,2021-02-26
"28","NOR","Moderna",107,1070,2021-02-26
"28","NOR","AstraZeneca",421,4210,2021-02-26
"28","NOR","Pfizer",4937,29622,2021-02-26
"32","HDF","AstraZeneca",1081,10810,2021-02-26
"32","HDF","Pfizer",8268,49608,2021-02-26
"32","HDF","Moderna",560,5600,2021-02-26
"44","GES","Pfizer",12726,76356,2021-02-26
"44","GES","AstraZeneca",1550,15500,2021-02-26
"44","GES","Moderna",1380,13800,2021-02-26
"52","PDL","Moderna",270,2700,2021-02-26
"52","PDL","Pfizer",6222,37332,2021-02-26
"52","PDL","AstraZeneca",1077,10770,2021-02-26
"53","BRE","AstraZeneca",742,7420,2021-02-26
"53","BRE","Moderna",353,3530,2021-02-26
"53","BRE","Pfizer",6218,37308,2021-02-26
"75","NAQ","Pfizer",9937,59622,2021-02-26
"75","NAQ","Moderna",934,9340,2021-02-26
"75","NAQ","AstraZeneca",1822,18220,2021-02-26
"76","OCC","Pfizer",11274,67644,2021-02-26
"76","OCC","Moderna",675,6750,2021-02-26
"76","OCC","AstraZeneca",3478,34780,2021-02-26
"84","ARA","Moderna",1163,11630,2021-02-26
"84","ARA","AstraZeneca",3240,32400,2021-02-26
"84","ARA","Pfizer",11689,70134,2021-02-26
"93","PAC","Pfizer",6215,37290,2021-02-26
"93","PAC","AstraZeneca",4336,43360,2021-02-26
"93","PAC","Moderna",114,1140,2021-02-26
"94","COR","Moderna",0,0,2021-02-26
"94","COR","AstraZeneca",62,620,2021-02-26
"94","COR","Pfizer",1072,6432,2021-02-26
"01","GDP","AstraZeneca",308,3080,2021-03-08
"01","GDP","Pfizer",1682,10092,2021-03-08
"02","MAR","Pfizer",2183,13098,2021-03-08
"02","MAR","AstraZeneca",228,2280,2021-03-08
"03","GUY","Pfizer",628,3768,2021-03-08
"11","IDF","AstraZeneca",423,4230,2021-03-08
"11","IDF","Pfizer",8516,51096,2021-03-08
"11","IDF","Moderna",1729,17290,2021-03-08
"24","CVL","Moderna",1192,11920,2021-03-08
"24","CVL","Pfizer",3907,23442,2021-03-08
"24","CVL","AstraZeneca",811,8110,2021-03-08
"27","BFC","Moderna",1066,10660,2021-03-08
"27","BFC","Pfizer",5682,34092,2021-03-08
"27","BFC","AstraZeneca",380,3800,2021-03-08
"28","NOR","Moderna",1105,11050,2021-03-08
"28","NOR","AstraZeneca",1065,10650,2021-03-08
"28","NOR","Pfizer",4467,26802,2021-03-08
"32","HDF","AstraZeneca",571,5710,2021-03-08
"32","HDF","Moderna",1620,16200,2021-03-08
"32","HDF","Pfizer",7966,47796,2021-03-08
"44","GES","AstraZeneca",909,9090,2021-03-08
"44","GES","Pfizer",12501,75006,2021-03-08
"44","GES","Moderna",2657,26570,2021-03-08
"52","PDL","AstraZeneca",712,7120,2021-03-08
"52","PDL","Moderna",1664,16640,2021-03-08
"52","PDL","Pfizer",7452,44712,2021-03-08
"53","BRE","Moderna",1706,17060,2021-03-08
"53","BRE","AstraZeneca",423,4230,2021-03-08
"53","BRE","Pfizer",5305,31830,2021-03-08
"75","NAQ","Moderna",2752,27520,2021-03-08
"75","NAQ","AstraZeneca",617,6170,2021-03-08
"75","NAQ","Pfizer",9842,59052,2021-03-08
"76","OCC","Moderna",2160,21600,2021-03-08
"76","OCC","AstraZeneca",490,4900,2021-03-08
"76","OCC","Pfizer",10822,64932,2021-03-08
"84","ARA","AstraZeneca",458,4580,2021-03-08
"84","ARA","Pfizer",10322,61932,2021-03-08
"84","ARA","Moderna",3360,33600,2021-03-08
"93","PAC","AstraZeneca",2273,22730,2021-03-08
"93","PAC","Pfizer",6996,41976,2021-03-08
"93","PAC","Moderna",1565,15650,2021-03-08
"94","COR","AstraZeneca",111,1110,2021-03-08
"94","COR","Pfizer",808,4848,2021-03-08
"94","COR","Moderna",120,1200,2021-03-08
"01","GDP","AstraZeneca",355,3550,2021-03-19
"01","GDP","Pfizer",2124,12744,2021-03-19
"01","GDP","Moderna",120,1200,2021-03-19
"02","MAR","AstraZeneca",138,1380,2021-03-19
"02","MAR","Pfizer",2028,12168,2021-03-19
"03","GUY","Pfizer",586,3516,2021-03-19
"11","IDF","Pfizer",13644,81864,2021-03-19
"11","IDF","AstraZeneca",66,660,2021-03-19
"11","IDF","Moderna",2323,23230,2021-03-19
"24","CVL","Pfizer",4669,28014,2021-03-19
"24","CVL","Moderna",1805,18050,2021-03-19
"24","CVL","AstraZeneca",383,3830,2021-03-19
"27","BFC","Pfizer",3448,20688,2021-03-19
"27","BFC","Moderna",1065,10650,2021-03-19
"27","BFC","AstraZeneca",29,290,2021-03-19
"28","NOR","AstraZeneca",502,5020,2021-03-19
"28","NOR","Pfizer",3125,18750,2021-03-19
"28","NOR","Moderna",1529,15290,2021-03-19
"32","HDF","Moderna",1625,16250,2021-03-19
"32","HDF","Pfizer",4741,28446,2021-03-19
"32","HDF","AstraZeneca",178,1780,2021-03-19
"44","GES","AstraZeneca",539,5390,2021-03-19
"44","GES","Pfizer",11337,68022,2021-03-19
"44","GES","Moderna",3098,30980,2021-03-19
"52","PDL","Moderna",2266,22660,2021-03-19
"52","PDL","AstraZeneca",201,2010,2021-03-19
"52","PDL","Pfizer",9952,59712,2021-03-19
"53","BRE","AstraZeneca",41,410,2021-03-19
"53","BRE","Moderna",2489,24890,2021-03-19
"53","BRE","Pfizer",6377,38262,2021-03-19
"75","NAQ","AstraZeneca",284,2840,2021-03-19
"75","NAQ","Moderna",4413,44130,2021-03-19
"75","NAQ","Pfizer",11257,67542,2021-03-19
"76","OCC","AstraZeneca",131,1310,2021-03-19
"76","OCC","Moderna",3007,30070,2021-03-19
"76","OCC","Pfizer",14375,86250,2021-03-19
"84","ARA","Pfizer",14182,85092,2021-03-19
"84","ARA","Moderna",4522,45220,2021-03-19
"84","ARA","AstraZeneca",234,2340,2021-03-19
"93","PAC","AstraZeneca",526,5260,2021-03-19
"93","PAC","Pfizer",7993,47958,2021-03-19
"93","PAC","Moderna",2517,25170,2021-03-19
"94","COR","Moderna",0,0,2021-03-19
"94","COR","Pfizer",920,5520,2021-03-19
"94","COR","AstraZeneca",26,260,2021-03-19
"01","GDP","AstraZeneca",355,3550,2021-03-23
"01","GDP","Moderna",120,1200,2021-03-23
"01","GDP","Pfizer",2124,12744,2021-03-23
"02","MAR","AstraZeneca",138,1380,2021-03-23
"02","MAR","Pfizer",2405,14430,2021-03-23
"03","GUY","Pfizer",397,2382,2021-03-23
"11","IDF","Pfizer",4369,26214,2021-03-23
"11","IDF","AstraZeneca",43,430,2021-03-23
"11","IDF","Moderna",1677,16770,2021-03-23
"24","CVL","Pfizer",2816,16896,2021-03-23
"24","CVL","Moderna",1628,16280,2021-03-23
"24","CVL","AstraZeneca",376,3760,2021-03-23
"27","BFC","Pfizer",1839,11034,2021-03-23
"27","BFC","Moderna",898,8980,2021-03-23
"27","BFC","AstraZeneca",29,290,2021-03-23
"28","NOR","Moderna",1537,15370,2021-03-23
"28","NOR","Pfizer",795,4770,2021-03-23
"28","NOR","AstraZeneca",498,4980,2021-03-23
"32","HDF","Moderna",863,8630,2021-03-23
"32","HDF","Pfizer",831,4986,2021-03-23
"32","HDF","AstraZeneca",159,1590,2021-03-23
"44","GES","Pfizer",6687,40122,2021-03-23
"44","GES","AstraZeneca",500,5000,2021-03-23
"44","GES","Moderna",2734,27340,2021-03-23
"52","PDL","Pfizer",7823,46938,2021-03-23
"52","PDL","Moderna",2073,20730,2021-03-23
"52","PDL","AstraZeneca",221,2210,2021-03-23
"53","BRE","AstraZeneca",54,540,2021-03-23
"53","BRE","Pfizer",4672,28032,2021-03-23
"53","BRE","Moderna",2284,22840,2021-03-23
"75","NAQ","AstraZeneca",269,2690,2021-03-23
"75","NAQ","Moderna",4032,40320,2021-03-23
"75","NAQ","Pfizer",5363,32178,2021-03-23
"76","OCC","AstraZeneca",129,1290,2021-03-23
"76","OCC","Pfizer",8255,49530,2021-03-23
"76","OCC","Moderna",2850,28500,2021-03-23
"84","ARA","AstraZeneca",231,2310,2021-03-23
"84","ARA","Moderna",3630,36300,2021-03-23
"84","ARA","Pfizer",8136,48816,2021-03-23
"93","PAC","AstraZeneca",473,4730,2021-03-23
"93","PAC","Pfizer",4410,26460,2021-03-23
"93","PAC","Moderna",2237,22370,2021-03-23
"94","COR","Pfizer",637,3822,2021-03-23
"94","COR","Moderna",0,0,2021-03-23
"94","COR","AstraZeneca",26,260,2021-03-23
